{
    "page": 5,
    "per_page": 5,
    "photos": [
      {
        "id": 627678,
        "width": 4387,
        "height": 2722,
        "url": "https://www.pexels.com/photo/red-coupe-soft-top-on-road-627678/",
        "photographer": "Nordic Overdrive",
        "photographer_url": "https://www.pexels.com/@nordic-overdrive-202768",
        "photographer_id": 202768,
        "avg_color": "#7F6C64",
        "src": {
          "original": "https://images.pexels.com/photos/627678/pexels-photo-627678.jpeg",
          "large2x": "https://images.pexels.com/photos/627678/pexels-photo-627678.jpeg?auto=compress&cs=tinysrgb&dpr=2&h=650&w=940",
          "large": "https://images.pexels.com/photos/627678/pexels-photo-627678.jpeg?auto=compress&cs=tinysrgb&h=650&w=940",
          "medium": "https://images.pexels.com/photos/627678/pexels-photo-627678.jpeg?auto=compress&cs=tinysrgb&h=350",
          "small": "https://images.pexels.com/photos/627678/pexels-photo-627678.jpeg?auto=compress&cs=tinysrgb&h=130",
          "portrait": "https://images.pexels.com/photos/627678/pexels-photo-627678.jpeg?auto=compress&cs=tinysrgb&fit=crop&h=1200&w=800",
          "landscape": "https://images.pexels.com/photos/627678/pexels-photo-627678.jpeg?auto=compress&cs=tinysrgb&fit=crop&h=627&w=1200",
          "tiny": "https://images.pexels.com/photos/627678/pexels-photo-627678.jpeg?auto=compress&cs=tinysrgb&dpr=1&fit=crop&h=200&w=280"
        },
        "liked": false,
        "alt": "Red Coupe Soft-top on Road"
      },
      {
        "id": 244206,
        "width": 6000,
        "height": 3376,
        "url": "https://www.pexels.com/photo/blue-audi-sedan-parked-near-forest-244206/",
        "photographer": "Mike Bird",
        "photographer_url": "https://www.pexels.com/@mikebirdy",
        "photographer_id": 20649,
        "avg_color": "#777784",
        "src": {
          "original": "https://images.pexels.com/photos/244206/pexels-photo-244206.jpeg",
          "large2x": "https://images.pexels.com/photos/244206/pexels-photo-244206.jpeg?auto=compress&cs=tinysrgb&dpr=2&h=650&w=940",
          "large": "https://images.pexels.com/photos/244206/pexels-photo-244206.jpeg?auto=compress&cs=tinysrgb&h=650&w=940",
          "medium": "https://images.pexels.com/photos/244206/pexels-photo-244206.jpeg?auto=compress&cs=tinysrgb&h=350",
          "small": "https://images.pexels.com/photos/244206/pexels-photo-244206.jpeg?auto=compress&cs=tinysrgb&h=130",
          "portrait": "https://images.pexels.com/photos/244206/pexels-photo-244206.jpeg?auto=compress&cs=tinysrgb&fit=crop&h=1200&w=800",
          "landscape": "https://images.pexels.com/photos/244206/pexels-photo-244206.jpeg?auto=compress&cs=tinysrgb&fit=crop&h=627&w=1200",
          "tiny": "https://images.pexels.com/photos/244206/pexels-photo-244206.jpeg?auto=compress&cs=tinysrgb&dpr=1&fit=crop&h=200&w=280"
        },
        "liked": false,
        "alt": "Blue Audi Sedan Parked Near Forest"
      },
      {
        "id": 810357,
        "width": 4912,
        "height": 3264,
        "url": "https://www.pexels.com/photo/photography-of-a-blue-mercedes-benz-5-door-hatchback-810357/",
        "photographer": "Mike Bird",
        "photographer_url": "https://www.pexels.com/@mikebirdy",
        "photographer_id": 20649,
        "avg_color": "#6A7B94",
        "src": {
          "original": "https://images.pexels.com/photos/810357/pexels-photo-810357.jpeg",
          "large2x": "https://images.pexels.com/photos/810357/pexels-photo-810357.jpeg?auto=compress&cs=tinysrgb&dpr=2&h=650&w=940",
          "large": "https://images.pexels.com/photos/810357/pexels-photo-810357.jpeg?auto=compress&cs=tinysrgb&h=650&w=940",
          "medium": "https://images.pexels.com/photos/810357/pexels-photo-810357.jpeg?auto=compress&cs=tinysrgb&h=350",
          "small": "https://images.pexels.com/photos/810357/pexels-photo-810357.jpeg?auto=compress&cs=tinysrgb&h=130",
          "portrait": "https://images.pexels.com/photos/810357/pexels-photo-810357.jpeg?auto=compress&cs=tinysrgb&fit=crop&h=1200&w=800",
          "landscape": "https://images.pexels.com/photos/810357/pexels-photo-810357.jpeg?auto=compress&cs=tinysrgb&fit=crop&h=627&w=1200",
          "tiny": "https://images.pexels.com/photos/810357/pexels-photo-810357.jpeg?auto=compress&cs=tinysrgb&dpr=1&fit=crop&h=200&w=280"
        },
        "liked": false,
        "alt": "Photography of a Blue Mercedes-benz 5-door Hatchback"
      },
      {
        "id": 326259,
        "width": 5600,
        "height": 3700,
        "url": "https://www.pexels.com/photo/car-with-red-interior-326259/",
        "photographer": "Pixabay",
        "photographer_url": "https://www.pexels.com/@pixabay",
        "photographer_id": 2659,
        "avg_color": "#422C2D",
        "src": {
          "original": "https://images.pexels.com/photos/326259/pexels-photo-326259.jpeg",
          "large2x": "https://images.pexels.com/photos/326259/pexels-photo-326259.jpeg?auto=compress&cs=tinysrgb&dpr=2&h=650&w=940",
          "large": "https://images.pexels.com/photos/326259/pexels-photo-326259.jpeg?auto=compress&cs=tinysrgb&h=650&w=940",
          "medium": "https://images.pexels.com/photos/326259/pexels-photo-326259.jpeg?auto=compress&cs=tinysrgb&h=350",
          "small": "https://images.pexels.com/photos/326259/pexels-photo-326259.jpeg?auto=compress&cs=tinysrgb&h=130",
          "portrait": "https://images.pexels.com/photos/326259/pexels-photo-326259.jpeg?auto=compress&cs=tinysrgb&fit=crop&h=1200&w=800",
          "landscape": "https://images.pexels.com/photos/326259/pexels-photo-326259.jpeg?auto=compress&cs=tinysrgb&fit=crop&h=627&w=1200",
          "tiny": "https://images.pexels.com/photos/326259/pexels-photo-326259.jpeg?auto=compress&cs=tinysrgb&dpr=1&fit=crop&h=200&w=280"
        },
        "liked": false,
        "alt": "Car With Red Interior"
      },
      {
        "id": 804130,
        "width": 4000,
        "height": 6000,
        "url": "https://www.pexels.com/photo/person-drives-a-luxurious-car-804130/",
        "photographer": "Hassan OUAJBIR",
        "photographer_url": "https://www.pexels.com/@hazardos",
        "photographer_id": 114987,
        "avg_color": "#95887F",
        "src": {
          "original": "https://images.pexels.com/photos/804130/pexels-photo-804130.jpeg",
          "large2x": "https://images.pexels.com/photos/804130/pexels-photo-804130.jpeg?auto=compress&cs=tinysrgb&dpr=2&h=650&w=940",
          "large": "https://images.pexels.com/photos/804130/pexels-photo-804130.jpeg?auto=compress&cs=tinysrgb&h=650&w=940",
          "medium": "https://images.pexels.com/photos/804130/pexels-photo-804130.jpeg?auto=compress&cs=tinysrgb&h=350",
          "small": "https://images.pexels.com/photos/804130/pexels-photo-804130.jpeg?auto=compress&cs=tinysrgb&h=130",
          "portrait": "https://images.pexels.com/photos/804130/pexels-photo-804130.jpeg?auto=compress&cs=tinysrgb&fit=crop&h=1200&w=800",
          "landscape": "https://images.pexels.com/photos/804130/pexels-photo-804130.jpeg?auto=compress&cs=tinysrgb&fit=crop&h=627&w=1200",
          "tiny": "https://images.pexels.com/photos/804130/pexels-photo-804130.jpeg?auto=compress&cs=tinysrgb&dpr=1&fit=crop&h=200&w=280"
        },
        "liked": false,
        "alt": "Person drives a Luxurious Car"
      }
    ],
    "total_results": 8000,
    "next_page": "https://api.pexels.com/v1/search/?page=6&per_page=5&query=car",
    "prev_page": "https://api.pexels.com/v1/search/?page=4&per_page=5&query=car"
  }